{
    "op": "NATIVE",
    "datastore": "mongo",
    "code": " \n\ndb.publication.insert({\"auth_id\" : 1, \"name\" : \"name1\", \"city\" : $city},{\"auth_id\" : 2, \"name\" : \"name2\", \"city\" : $city},{\"auth_id\" : 3, \"name\" : \"name3\", \"city\" : $city},{\"auth_id\" : 4, \"name\" : \"name4\", \"city\" : $city},{\"auth_id\" : 5, \"name\" : \"name5\", \"city\" : $city},{\"auth_id\" : 6, \"name\" : \"name6\", \"city\" : $city},{\"auth_id\" : 7, \"name\" : \"name7\", \"city\" : $city},{\"auth_id\" : 9, \"name\" : \"name9\", \"city\" : $city})\n\n",
    "params": [
        {
            "name": "city",
            "datatype": "STRING"
        }
    ],
    "columns": [],
    "signature": []
}