{
	"op": "NATIVE",
	"datastore": "db1",
	"code": " \n\ndb.ORDERS.aggregate(\n   [\n      {\n\t\t\"$match\" : {\"O_ORDERSTATUS\" : \"F\"}\n\t  },\n      {\n        \"$group\" : {\n           \"_id\" : { \"O_ORDERSTATUS\": \"$O_ORDERSTATUS\", \"O_ORDERPRIORITY\": \"$O_ORDERPRIORITY\"},\n           \"averageQuantity\" : { \"$avg\": \"$O_TOTALPRICE\" }\n        }\n      },\n\t  { \"$sort\" : { \"O_ORDERSTATUS\" : 1, \"O_ORDERPRIORITY\": 1 } }\n   ]\n)\n\n",
	"columns": [
		[
			"o_orderstatus"
		],
		[
			"o_orderpriority"
		],
		[
			"o_totalprice"
		]
	],
	"signature": [
		"STRING",
		"INT",
		"FLOAT"
	]
}