{
    "op": "TRANSFORM",
    "plan": {
        "op": "PROJECT",
        "operands": [
            {
                "op": "SELECT",
                "operands": [
                    {
                        "op": "TABLEREF",
                        "name": "reviews"
                    }
                ],
                "filter": {
                    "expr": "func",
                    "function": "BETWEEN",
                    "operands": [
                        {
                            "expr": "colref",
                            "colref": [
                                "date"
                            ]
                        },
                        {
                            "expr": "const",
                            "datatype": "STRING",
                            "value": "2013-01-01"
                        },
                        {
                            "expr": "const",
                            "datatype": "STRING",
                            "value": "2013-12-31"
                        }
                    ]
                }
            }
        ],
        "columns": [
            {
                "value": {
                    "expr": "colref",
                    "colref": [
                        "pub_id"
                    ]
                },
                "name": "pub_id"
            },
            {
                "value": {
                    "expr": "colref",
                    "colref": [
                        "reviewer"
                    ]
                },
                "name": "reviewer"
            }
        ]
    },
    "datastore": "db1",
    "signature": [
        "INT",
        "STRING"
    ]
}
