{
    "op": "TRANSFORM",
    "plan": {
        "op": "DELETE",
        "operands": [
            {
                "op": "PROJECT",
                "operands": [
                    {
                        "op": "SELECT",
                        "operands": [
                            {
                                "op": "TABLEREF",
                                "name": "reviwers"
                            }
                        ],
                        "filter": {
                            "expr": "func",
                            "function": ">",
                            "operands": [
                                {
                                    "expr": "colref",
                                    "colref": [
                                        "pub_id"
                                    ]
                                },
                                {
                                    "expr": "param",
                                    "name": "x"
                                }
                            ]
                        }
                    }
                ],
                "columns": [],
                "distinct": "false"
            }
        ]
    },
    "datastore": "db4",
    "params": [
        {
            "name": "x",
            "datatype": "INT"
        }
    ],
    "signature": []
}