{
    "op": "TRANSFORM",
    "plan": {
        "op": "PROJECT",
        "operands": [
            {
                "op": "SELECT",
                "operands": [
                    {
                        "op": "TABLEREF",
                        "name": "publications"
                    }
                ],
                "filter": {
                    "expr": "inquery",
                    "operands": [
                        {
                            "expr": "colref",
                            "colref": [
                                "pub_id"
                            ]
                        }
                    ],
                    "values": {
                        "op": "CALL",
                        "sub": "t0",
                        "params": [
                            {
                                "name": "city",
                                "value": {
                                    "expr": "const",
                                    "datatype": "STRING",
                                    "value": "athens"
                                }
                            }
                        ]
                    }
                }
            }
        ],
        "columns": [
            {
                "value": {
                    "expr": "colref",
                    "colref": [
                        "pub_id"
                    ]
                },
                "name": "pub_id"
            },
            {
                "value": {
                    "expr": "colref",
                    "colref": [
                        "name"
                    ]
                },
                "name": "name"
            },
            {
                "value": {
                    "expr": "colref",
                    "colref": [
                        "title"
                    ]
                },
                "name": "title"
            }
        ],
        "distinct": "false"
    },
    "datastore": "mongo2",
    "params": [
        {
            "name": "cityname",
            "datatype": "STRING"
        }
    ],
    "signature": [
        "INT",
        "STRING",
        "STRING"
    ]
}