{
    "op": "TRANSFORM",
    "plan": {
        "op": "PROJECT",
        "operands": [
            {
                "op": "SELECT",
                "operands": [
                    {
                        "op": "TABLEREF",
                        "name": "revs_cities"
                    }
                ],
                "filter": {
                    "expr": "func",
                    "function": "=",
                    "operands": [
                        {
                            "expr": "colref",
                            "colref": [
                                "city"
                            ]
                        },
                        {
                            "expr": "param",
                            "name": "city"
                        }
                    ]
                }
            }
        ],
        "columns": [
            {
                "value": {
                    "expr": "colref",
                    "colref": [
                        "rev_id"
                    ]
                },
                "name": "rev_id"
            }
        ],
        "distinct": "false"
    },
    "datastore": "mongo1",
    "params": [
        {
            "name": "city",
            "datatype": "STRING"
        }
    ],
    "signature": [
        "INT"
    ]
}