{
    "op": "TRANSFORM",
    "plan": {
        "op": "LIMIT",
        "operands": [
            {
                "op": "PROJECT",
                "operands": [
                    {
                        "op": "SORT",
                        "operands": [
                            {
                                "op": "SELECT",
                                "operands": [
                                    {
                                        "op": "TABLEREF",
                                        "name": "reviews"
                                    }
                                ],
                                "filter": {
                                    "expr": "func",
                                    "function": "<",
                                    "operands": [
                                        {
                                            "expr": "colref",
                                            "colref": [
                                                "pub_id"
                                            ]
                                        },
                                        {
                                            "expr": "const",
                                            "datatype": "INT",
                                            "value": "15"
                                        }
                                    ]
                                }
                            }
                        ],
                        "columns": [
                            {
                                "column": {
                                    "expr": "colref",
                                    "colref": [
                                        "value"
                                    ]
                                },
                                "order": "desc"
                            }
                        ]
                    }
                ],
                "columns": [
                    {
                        "value": {
                            "expr": "colref",
                            "colref": [
                                "pub_id",
                                "reviews"
                            ]
                        },
                        "name": "pub_id"
                    },
                    {
                        "value": {
                            "expr": "colref",
                            "colref": [
                                "reviewer",
                                "reviews"
                            ]
                        },
                        "name": "reviewer"
                    },
                    {
                        "value": {
                            "expr": "colref",
                            "colref": [
                                "value",
                                "reviews"
                            ]
                        },
                        "name": "value"
                    }
                ],
                "distinct": "false"
            }
        ],
        "limit": "40"
    },
    "datastore": "db1",
    "signature": [
        "INT",
        "STRING",
        "INT"
    ]
}